<?xml version="1.0" encoding="UTF-8" standalone="no"?>
<!-- Created with Inkscape (http://www.inkscape.org/) -->

<svg
   xmlns:dc="http://purl.org/dc/elements/1.1/"
   xmlns:cc="http://creativecommons.org/ns#"
   xmlns:rdf="http://www.w3.org/1999/02/22-rdf-syntax-ns#"
   xmlns:svg="http://www.w3.org/2000/svg"
   xmlns="http://www.w3.org/2000/svg"
   xmlns:sodipodi="http://sodipodi.sourceforge.net/DTD/sodipodi-0.dtd"
   xmlns:inkscape="http://www.inkscape.org/namespaces/inkscape"
   width="64"
   height="64"
   id="svg4279"
   version="1.1"
   inkscape:version="0.48.5 r10040">
  <defs
     id="defs4281" />
  <sodipodi:namedview
     id="base"
     pagecolor="#ffffff"
     bordercolor="#666666"
     borderopacity="1.0"
     inkscape:pageopacity="0.0"
     inkscape:pageshadow="2"
     inkscape:zoom="7.9195959"
     inkscape:cx="43.253096"
     inkscape:cy="28.613172"
     inkscape:document-units="px"
     inkscape:current-layer="layer1"
     showgrid="false"
     inkscape:snap-page="true"
     inkscape:window-width="1536"
     inkscape:window-height="801"
     inkscape:window-x="-8"
     inkscape:window-y="-8"
     inkscape:window-maximized="1" />
  <metadata
     id="metadata4284">
    <rdf:RDF>
      <cc:Work
         rdf:about="">
        <dc:format>image/svg+xml</dc:format>
        <dc:type
           rdf:resource="http://purl.org/dc/dcmitype/StillImage" />
        <dc:title></dc:title>
      </cc:Work>
    </rdf:RDF>
  </metadata>
  <g
     inkscape:label="Ebene 1"
     inkscape:groupmode="layer"
     id="layer1"
     transform="translate(0,-988.36218)">
    <g
       transform="translate(-23.61061,516.07308)"
       id="g3127"
       inkscape:export-filename="C:\Users\DHPW\AndroidStudioProjects\StudentAssociationEvents\app\src\main\res\drawable\email.png"
       inkscape:export-xdpi="91"
       inkscape:export-ydpi="91">
      <path
         inkscape:connector-curvature="0"
         inkscape:export-filename="C:\Users\DHPW\AndroidStudioProjects\StudentAssociationEvents\app\src\main\res\drawable\email.png"
         inkscape:export-ydpi="91.769302"
         inkscape:export-xdpi="91.769302"
         id="path3169"
         d="m 56.166126,479.09115 c -6.777233,0.0449 -13.829259,2.32672 -18.353023,6.48132 -7.156919,6.57286 -9.406573,20.36294 -4.877026,29.96804 2.988005,6.3362 6.091714,9.25647 12.577596,11.87171 6.290891,2.53663 15.594041,2.15796 21.465335,-0.86631 4.517739,-2.32707 11.923037,-9.46528 9.818226,-9.46528 -0.735395,0 -2.201173,1.10831 -3.272742,2.47059 -3.202995,4.07195 -11.844143,7.79683 -18.096337,7.79683 -13.508585,0 -22.793479,-9.2971 -22.845021,-22.87711 -0.03681,-9.69245 4.288057,-17.1552 12.288824,-21.20865 18.260534,-9.25138 37.810471,6.69009 29.807619,24.32097 -1.090452,2.40235 -3.227894,5.52109 -4.748684,6.93051 -2.982348,2.76395 -8.343228,3.47437 -9.208597,1.21925 -0.283895,-0.7398 1.54112,-6.63074 4.042798,-13.09096 2.50169,-6.46022 4.340832,-11.97909 4.074885,-12.25674 -0.265936,-0.27766 -0.959132,0.30261 -1.508028,1.28343 -0.93184,1.66509 -1.172786,1.64197 -3.914456,-0.38503 -4.219337,-3.11949 -10.506379,-2.83175 -15.144452,0.70588 -3.977241,3.0336 -8.4869,11.64521 -8.502711,16.1712 -0.01269,3.63692 2.466872,8.53874 5.037455,9.91448 2.865094,1.53335 8.524765,1.31078 11.037482,-0.4492 1.918591,-1.34383 2.317891,-1.34383 3.43317,0 3.350066,4.03658 12.134136,-0.13902 16.363709,-7.76474 5.613684,-10.12122 1.833023,-23.21652 -8.181854,-28.33168 -3.274093,-1.67226 -7.227827,-2.46544 -11.294168,-2.43851 z m -0.2246,11.29417 c 3.108504,0 8.042043,2.58372 8.823568,4.62034 0.748003,1.94926 -4.946414,16.73048 -7.411797,19.25142 -3.910154,3.99829 -11.099426,3.98399 -14.149795,-0.0321 -5.134431,-6.75992 3.991451,-23.83968 12.738024,-23.83968 z"
         style="fill:#000000" />
      <rect
         inkscape:export-ydpi="91.769302"
         inkscape:export-xdpi="91.769302"
         inkscape:export-filename="C:\Users\DHPW\AndroidStudioProjects\StudentAssociationEvents\app\src\main\res\drawable\email.png"
         y="480.05447"
         x="29.902262"
         height="49.036003"
         width="49.036003"
         id="rect3059"
         style="fill:none;stroke:none" />
    </g>
  </g>
</svg>
