<?xml version="1.0" encoding="UTF-8" standalone="no"?>
<!-- Created with Inkscape (http://www.inkscape.org/) -->

<svg
   xmlns:dc="http://purl.org/dc/elements/1.1/"
   xmlns:cc="http://creativecommons.org/ns#"
   xmlns:rdf="http://www.w3.org/1999/02/22-rdf-syntax-ns#"
   xmlns:svg="http://www.w3.org/2000/svg"
   xmlns="http://www.w3.org/2000/svg"
   xmlns:sodipodi="http://sodipodi.sourceforge.net/DTD/sodipodi-0.dtd"
   xmlns:inkscape="http://www.inkscape.org/namespaces/inkscape"
   width="64"
   height="64"
   id="svg4279"
   version="1.1"
   inkscape:version="0.48.5 r10040">
  <defs
     id="defs4281" />
  <sodipodi:namedview
     id="base"
     pagecolor="#ffffff"
     bordercolor="#666666"
     borderopacity="1.0"
     inkscape:pageopacity="0.0"
     inkscape:pageshadow="2"
     inkscape:zoom="7.9195959"
     inkscape:cx="43.253096"
     inkscape:cy="28.613172"
     inkscape:document-units="px"
     inkscape:current-layer="layer1"
     showgrid="false"
     inkscape:snap-page="true"
     inkscape:window-width="1536"
     inkscape:window-height="801"
     inkscape:window-x="-8"
     inkscape:window-y="-8"
     inkscape:window-maximized="1" />
  <metadata
     id="metadata4284">
    <rdf:RDF>
      <cc:Work
         rdf:about="">
        <dc:format>image/svg+xml</dc:format>
        <dc:type
           rdf:resource="http://purl.org/dc/dcmitype/StillImage" />
        <dc:title></dc:title>
      </cc:Work>
    </rdf:RDF>
  </metadata>
  <g
     inkscape:label="Ebene 1"
     inkscape:groupmode="layer"
     id="layer1"
     transform="translate(0,-988.36218)">
    <g
       id="g3226"
       transform="translate(-304.27293,306.3948)"
       inkscape:export-filename="C:\Users\DHPW\AndroidStudioProjects\bitmap\color_emphasis.png"
       inkscape:export-xdpi="90"
       inkscape:export-ydpi="90">
      <path
         id="path3207"
         d="m 309.33004,718.12292 0,-24.51201 3.75,-1.04143 c 6.43115,-1.78602 12.6767,-1.21366 21.25,1.94742 9.04816,3.33616 14.6597,3.73699 21,1.5 2.3383,-0.825 4.41988,-1.5 4.62573,-1.5 0.20585,0 0.37427,6.05757 0.37427,13.46126 l 0,13.46126 -5.1815,1.53874 c -6.95398,2.06511 -12.91944,1.93758 -21.57594,-0.46126 -7.37278,-2.0431 -13.55413,-2.48769 -19.11756,-1.375 l -3.125,0.625 0,9.81598 c 0,5.4653 -0.44322,10.08991 -1,10.43402 -0.65628,0.4056 -1,-7.80728 -1,-23.89398 z"
         style="fill:#000000"
         inkscape:connector-curvature="0" />
      <path
         id="path3205"
         d="m 355.58004,721.63704 2.75,-1.07064 0,-12 0,-12 -2.75,1.07474 c -5.12448,2.00273 -14.23646,1.3357 -21.06352,-1.54191 -5.4106,-2.28058 -7.48428,-2.61977 -14.5,-2.37175 l -8.18648,0.28942 -0.27799,13.10161 -0.27799,13.10161 7.27799,-0.42861 c 5.25585,-0.30952 9.50074,0.14479 15.27799,1.63513 8.3205,2.14641 16.57222,2.22624 21.75,0.2104 z"
         style="fill:#ffffff"
         inkscape:connector-curvature="0" />
    </g>
  </g>
</svg>
