<?xml version="1.0" encoding="UTF-8" standalone="no"?>
<!-- Created with Inkscape (http://www.inkscape.org/) -->

<svg
   xmlns:dc="http://purl.org/dc/elements/1.1/"
   xmlns:cc="http://creativecommons.org/ns#"
   xmlns:rdf="http://www.w3.org/1999/02/22-rdf-syntax-ns#"
   xmlns:svg="http://www.w3.org/2000/svg"
   xmlns="http://www.w3.org/2000/svg"
   xmlns:sodipodi="http://sodipodi.sourceforge.net/DTD/sodipodi-0.dtd"
   xmlns:inkscape="http://www.inkscape.org/namespaces/inkscape"
   width="64"
   height="64"
   id="svg4279"
   version="1.1"
   inkscape:version="0.48.5 r10040">
  <defs
     id="defs4281" />
  <sodipodi:namedview
     id="base"
     pagecolor="#ffffff"
     bordercolor="#666666"
     borderopacity="1.0"
     inkscape:pageopacity="0.0"
     inkscape:pageshadow="2"
     inkscape:zoom="7.9195959"
     inkscape:cx="43.253096"
     inkscape:cy="28.613172"
     inkscape:document-units="px"
     inkscape:current-layer="layer1"
     showgrid="false"
     inkscape:snap-page="true"
     inkscape:window-width="1536"
     inkscape:window-height="801"
     inkscape:window-x="-8"
     inkscape:window-y="-8"
     inkscape:window-maximized="1" />
  <metadata
     id="metadata4284">
    <rdf:RDF>
      <cc:Work
         rdf:about="">
        <dc:format>image/svg+xml</dc:format>
        <dc:type
           rdf:resource="http://purl.org/dc/dcmitype/StillImage" />
        <dc:title></dc:title>
      </cc:Work>
    </rdf:RDF>
  </metadata>
  <g
     inkscape:label="Ebene 1"
     inkscape:groupmode="layer"
     id="layer1"
     transform="translate(0,-988.36218)">
    <g
       transform="translate(-123.00129,722.21427)"
       id="g3109"
       inkscape:export-filename="C:\Users\DHPW\AndroidStudioProjects\StudentAssociationEvents\app\src\main\res\drawable\organizer.png"
       inkscape:export-xdpi="90"
       inkscape:export-ydpi="90">
      <g
         inkscape:export-ydpi="90"
         inkscape:export-xdpi="90"
         inkscape:export-filename="C:\Users\DHPW\AndroidStudioProjects\StudentAssociationEvents\app\src\main\res\drawable\organizer.png"
         transform="matrix(0.1918756,0,0,0.1918756,45.461115,221.29865)"
         id="g3092">
        <path
           inkscape:connector-curvature="0"
           style="fill:#000000"
           d="m 482.2903,564.54075 c 0.01,-5.7795 4.04219,-29.84023 6.55064,-39.08566 3.28094,-12.09256 8.63111,-26.54327 13.20422,-35.66434 8.92601,-17.80293 23.2258,-35.08578 34.16539,-41.2926 5.187,-2.94296 5.55587,-3.01016 8.41283,-1.53277 14.17834,7.3319 33.72242,8.78439 49.52526,3.68064 5.06278,-1.6351 5.46989,-1.63083 8.66672,0.0908 8.83878,4.75999 20.96453,18.59526 29.84617,34.05395 11.44209,19.9152 20.20953,49.10749 23.05064,76.75 l 0.59099,5.75 -87.00873,0 -87.00874,0 0.005,-2.75 z"
           id="path3088" />
        <path
           inkscape:connector-curvature="0"
           style="fill:#000000"
           d="m 567.74985,423.19826 c -12.79774,-1.56776 -24.32413,-7.59723 -33.30178,-17.42022 -6.3066,-6.90042 -9.44404,-12.33072 -12.76697,-22.09714 -3.38346,-9.94431 -3.82303,-25.33633 -0.99491,-34.83787 5.61356,-18.8597 19.38315,-33.87879 36.42692,-39.73242 8.79442,-3.02042 24.88478,-3.23114 33.17258,-0.43443 18.073,6.09871 31.92301,20.87984 37.5876,40.11457 2.63182,8.93661 2.42179,23.92655 -0.46937,33.5 -8.27994,27.4172 -32.7573,44.20244 -59.65407,40.90751 z"
           id="path3072" />
      </g>
      <rect
         y="280.62991"
         x="130.17682"
         height="49.036003"
         width="49.036003"
         id="rect3107"
         style="fill:none;stroke:none" />
    </g>
  </g>
</svg>
